process_extraction — process_extraction • EXstat
…
# Final data for testing
data = dplyr::bind_rows(data_1, data_2)

## Extraction of the yearly average of daily value.
process_extraction(data=data,
                   funct=list(XA_state1=mean),
                   funct_args=list("X_state1", na.rm=TRUE),
                   time_step="year")
#> # A tibble: 22 × 3
#>    id      time       XA_state1
#>    <chr>   <date>         <dbl>
#>  1 serie 1 2000-01-01    21092.
#>  2 serie 1 2001-01-01    21468.
#>  3 serie 1 2002-01-01    21895.
#>  4 serie 1 2003-01-01    22232.
#>  5 serie 1 2004-01-01    22656.
#>  6 serie 1 2005-01-01    22999.
#>  7 serie 1 2006-01-01    23357.
#>  8 serie 1 2007-01-01    23605.
#>  9 serie 1 2008-01-01    24223.
#> 10 serie 1 2009-01-01    24421.
#> # ℹ 12 more rows

## Extraction of the median of the yearly maximum of the monthly
# averages of daily values.
# Three steps are needed for this case, the first one is the
# monthly average over years.
dataEX_tmp =
    process_extraction(data=data,
                       funct=list(X_month_state2=mean),
                       funct_args=list("X_state2", na.rm=TRUE),
                       time_step="year-month",
                       NApct_lim=20,
                       rmNApct=FALSE)
# Missing values represented by NA are handled.
print(dataEX_tmp)
#> # A tibble: 246 × 4
#>    id      time       X_month_state2 NApct
#>    <chr>   <date>              <dbl> <dbl>
#>  1 serie 1 2000-02-01        -0.0883   6.6
#>  2 serie 1 2000-03-01         0.205    6.6
#>  3 serie 1 2000-04-01         0.837    6.6
#>  4 serie 1 2000-05-01         0.737    6.6
#>  5 serie 1 2000-06-01         1.35    19.7
#>  6 serie 1 2000-07-01         1.55     9.9
#>  7 serie 1 2000-08-01         2.39    16.4
#>  8 serie 1 2000-09-01         2.41    13.1
#>  9 serie 1 2000-10-01         2.56     9.9
#> 10 serie 1 2000-11-01        NA       23  
#> # ℹ 236 more rows
…
## Extraction of the monthly average and the monthly maximum in a
# single call.
# The output is in long tibble format with 12 values for each time
# serie.
process_extraction(data=data,
                   funct=list(XA_state1=mean,
                              XX_state2=max),
                   funct_args=list(list("X_state1", na.rm=TRUE),
                                   list("X_state2", na.rm=TRUE)),
                   time_step="month")
#> # A tibble: 24 × 5
#>    id      time       Month XA_state1 XX_state2
#>    <chr>   <date>     <dbl>     <dbl>     <dbl>
#>  1 serie 1 2000-01-01     1    22997.      38.3
#>  2 serie 1 2000-02-01     2    22933.      39.0
#>  3 serie 1 2000-03-01     3    22815.      40.0
#>  4 serie 1 2000-04-01     4    22774.      37.7
#>  5 serie 1 2000-05-01     5    22716.      35.4
#>  6 serie 1 2000-06-01     6    22747.      36.6
#>  7 serie 1 2000-07-01     7    22805.      36.5
#>  8 serie 1 2000-08-01     8    22755.      36.9
#>  9 serie 1 2000-09-01     9    22867.      37.1
#> 10 serie 1 2000-10-01    10    22921.      38.3
#> # ℹ 14 more rows
…
