Hydrological indicator calculations • EXstat
…
Format data in tidy format:

dfQ <- df |> pivot_longer(!"date", values_to = "Q")
dfQ
#> # A tibble: 114,684 × 3
#>    date       name         Q
#>    <date>     <chr>    <dbl>
#>  1 1852-01-01 H1700010  0.97
#>  2 1852-01-01 H5920014  2.36
#>  3 1852-01-02 H1700010  5.13
#>  4 1852-01-02 H5920014 14.6 
#>  5 1852-01-03 H1700010 10.7 
#>  6 1852-01-03 H5920014 29.5 
#>  7 1852-01-04 H1700010 16.1 
#>  8 1852-01-04 H5920014 43.1 
#>  9 1852-01-05 H1700010 20.2 
#> 10 1852-01-05 H5920014 70.1 
#> # ℹ 114,674 more rows
…
results <- CARD_extraction(
  data = dfQ,
  CARD_name = CARD_name,
  simplify = TRUE,
  verbose = FALSE
)
#> Warning in process_extraction(data = data, funct = funct, funct_args =
#> funct_args, : 'compress' is coherced to FALSE. 'compress' can be TRUE only if
#> 'time_step' is 'month', 'year-month', 'season' or 'year-season'.
results
#> $metaEX
#> # A tibble: 24 × 18
#>    variable_en   unit_en   name_en description_en method_en topic_en variable_fr
#>    <chr>         <chr>     <chr>   <chr>          <chr>     <chr>    <chr>      
#>  1 BFI_Wal       without … Basefl… "Ratio betwee… "1. no t… Flow, B… BFI_Wal    
#>  2 BFM           without … Basefl… ""             "1. no t… Flow, B… BFM        
#>  3 med{centerBF} yearday   Median… "Median of th… "1. annu… Flow, B… med{centre…
#>  4 med{dtBF}     day       Median… "Median of th… "1. annu… Flow, B… med{dtQB}  
#>  5 med{endBF}    yearday   Median… "Median of th… "1. annu… Flow, B… med{finQB} 
#>  6 med{startBF}  yearday   Median… "Median of th… "1. annu… Flow, B… med{debutQ…
#>  7 med{vBF}      hm^{3}    Median… ""             "1. annu… Flow, B… med{vQB}   
#>  8 med{dtFlood}  day       Median… "Median of th… "1. no t… Flow, H… med{dtCrue}
#>  9 med{tQJXA}    yearday   Median… ""             "1. annu… Flow, H… med{tQJXA} 
#> 10 Q10           m^{3}.s^… Flow e… "Flow with an… "1. no t… Flow, H… Q10        
#> # ℹ 14 more rows
#> # ℹ 11 more variables: unit_fr <chr>, name_fr <chr>, description_fr <chr>,
#> #   method_fr <chr>, topic_fr <chr>, source <chr>, is_date <lgl>,
#> #   to_normalise <lgl>, sampling_period_en <chr>, sampling_period_fr <chr>,
#> #   palette <chr>
…
